{
  "products": [
    {
      "id": 3,
      "name": "Amd ryzen",
      "description": "procesador amd",
      "price": 65000,
      "stock": 15
    },
    {
      "id": 4,
      "name": "Mother asrock",
      "description": "Plca madre socket am4",
      "price": 8000,
      "stock": 3
    },
    {
      "id": 6,
      "name": "Procesador core i3",
      "description": "3ra generacion",
      "price": 16000,
      "stock": 4
    },
    {
      "id": 7,
      "name": "fuente deepcool 600w",
      "description": "80 plus bronze",
      "price": 8000,
      "stock": 45
    },
    {
      "id": 8,
      "name": "funte gamemax 650w",
      "description": "80 plus",
      "price": 12000,
      "stock": 7
    },
    {
      "id": 9,
      "name": "Kolink gabinete",
      "description": "gabiente",
      "price": 12000,
      "stock": 3
    },
    {
      "id": 10,
      "name": "Monitor LG",
      "description": "32 pulgdas",
      "price": 80000,
      "stock": 4
    },
    {
      "id": 11,
      "name": "Teclado redragon",
      "description": "no mecanico",
      "price": 15000,
      "stock": 3
    },
    {
      "id": 12,
      "name": "Web Cam longitech",
      "description": "full hd",
      "price": 45000,
      "stock": 34
    },
    {
      "id": 13,
      "name": "adata 8gb",
      "description": "memorai ram",
      "price": 3000,
      "stock": 3
    },
    {
      "id": 14,
      "name": "SSD 400GB ADATA",
      "description": "SSD",
      "price": 8000,
      "stock": 8
    }
  ],
  "categories": [
    {
      "id": 1,
      "name": "juegos"
    },
    {
      "id": 2,
      "name": "deportes"
    }
  ]
}